…
    ## `summarise()` has grouped output by 'carrier'. You can override using the
    ## `.groups` argument.

``` r
flight4
```

    ## # A tibble: 190 × 8
    ## # Groups:   carrier [16]
    ##    carrier  hour     n n_dep_delay n_arr_delay n_total_delay n_cancelled prop_…¹
    ##    <chr>   <dbl> <int>       <int>       <int>         <int>       <int>   <dbl>
    ##  1 AS          7   349          74          59            54           4   0.155
    ##  2 OO         18    24           4           6             4           3   0.167
    ##  3 US          5   341          33          74            57           1   0.167
    ##  4 9E          7   628         134         128           122          22   0.194
    ##  5 US          9   948          97         245           185          36   0.195
    ##  6 AA          7  3348         526         748           656          61   0.196
    ##  7 9E         10   136          22          29            27           6   0.199
    ##  8 DL          7  3787         472         877           766          40   0.202
    ##  9 YV         19    19           6           4             4           0   0.211
    ## 10 US          7   912         106         240           194          19   0.213
    ## # … with 180 more rows, and abbreviated variable name ¹​prop_delay
…
    ## `summarise()` has grouped output by 'carrier', 'hour'. You can override using
    ## the `.groups` argument.

``` r
dest1
```

    ## # A tibble: 150 × 9
    ## # Groups:   carrier, hour [103]
    ##    carrier  hour dest      n n_dep_delay n_arr_delay n_total_d…¹ n_can…² prop_…³
    ##    <chr>   <dbl> <chr> <int>       <int>       <int>       <int>   <int>   <dbl>
    ##  1 UA          8 ORD     188          27          32          29       2   0.154
    ##  2 AA          6 ORD     643          74         106         100      20   0.156
    ##  3 AA          7 ORD     614          75         115         107      12   0.174
    ##  4 AA          9 ORD     483          81          99          89      14   0.184
    ##  5 UA         11 ORD     110          22          24          21       1   0.191
    ##  6 AA          8 LAX      86          15          18          18       0   0.209
    ##  7 AA         13 LAX     364          81          83          78       4   0.214
    ##  8 AA         12 LAX     363          69          93          78       1   0.215
    ##  9 UA          6 ORD     625         178         127         138      19   0.221
    ## 10 B6          7 LAX     348          67          79          78       4   0.224
    ## # … with 140 more rows, and abbreviated variable names ¹​n_total_delay,
    ## #   ²​n_cancelled, ³​prop_delay

We can see flying with UA to ORD at 8am have the smallest delay
proportion. And the five smallest proportion of delay flights are all
going to ORD.

**by dest**

``` r
LAX = dest1%>%
  filter(dest =="LAX")
LAX
```

    ## # A tibble: 51 × 9
    ## # Groups:   carrier, hour [51]
    ##    carrier  hour dest      n n_dep_delay n_arr_delay n_total_d…¹ n_can…² prop_…³
    ##    <chr>   <dbl> <chr> <int>       <int>       <int>       <int>   <int>   <dbl>
    ##  1 AA          8 LAX      86          15          18          18       0   0.209
    ##  2 AA         13 LAX     364          81          83          78       4   0.214
    ##  3 AA         12 LAX     363          69          93          78       1   0.215
    ##  4 B6          7 LAX     348          67          79          78       4   0.224
    ##  5 AA          9 LAX     364          86          98          85       3   0.234
    ##  6 AA          7 LAX     256          60          56          60       4   0.234
    ##  7 DL          9 LAX     354          54          82          83       3   0.234
    ##  8 DL         12 LAX     348          57          98          83       1   0.239
    ##  9 UA         11 LAX     523         131         128         125       5   0.239
    ## 10 AA         10 LAX     337          52          88          82       3   0.243
    ## # … with 41 more rows, and abbreviated variable names ¹​n_total_delay,
    ## #   ²​n_cancelled, ³​prop_delay

Flyting to LAX at 8 has the smallest proportion of delay.

``` r
ATL = dest1%>%
  filter(dest =="ATL")
ATL
```

    ## # A tibble: 48 × 9
    ## # Groups:   carrier, hour [48]
    ##    carrier  hour dest      n n_dep_delay n_arr_delay n_total_d…¹ n_can…² prop_…³
    ##    <chr>   <dbl> <chr> <int>       <int>       <int>       <int>   <int>   <dbl>
    ##  1 DL          9 ATL     524          61         143         122       7   0.233
    ##  2 DL          7 ATL     930         116         269         226      11   0.243
    ##  3 DL          6 ATL    1104         144         399         336       9   0.304
    ##  4 DL         11 ATL     668         159         237         214       8   0.320
    ##  5 DL          8 ATL     593         134         204         191       6   0.322
    ##  6 DL         10 ATL     701         115         258         230       4   0.328
    ##  7 DL         13 ATL     767         231         297         265       8   0.346
    ##  8 EV          9 ATL     237          80          82          83       6   0.350
    ##  9 UA         12 ATL      58          26          22          22       1   0.379
    ## 10 MQ          6 ATL     265          28         126         102       6   0.385
    ## # … with 38 more rows, and abbreviated variable names ¹​n_total_delay,
    ## #   ²​n_cancelled, ³​prop_delay
…
    ## `summarise()` has grouped output by 'hour'. You can override using the
    ## `.groups` argument.

``` r
flight5
```

    ## # A tibble: 76 × 8
    ## # Groups:   hour [19]
    ##     hour season     n n_dep_delay n_arr_delay n_total_delay n_cancelled prop_d…¹
    ##    <dbl> <chr>  <int>       <int>       <int>         <int>       <int>    <dbl>
    ##  1     5 Fall     455          79          91            79           1    0.174
    ##  2     7 Fall    5754         901        1216          1107          39    0.192
    ##  3     6 Fall    6149         912        1332          1195          71    0.194
    ##  4     9 Fall    4863         926        1224          1111          36    0.228
    ##  5     7 Spring  5677        1198        1431          1327          71    0.234
    ##  6     8 Fall    7293        1376        1841          1707          70    0.234
    ##  7     6 Spring  6716        1299        1739          1584         125    0.236
    ##  8     7 Summer  5972        1331        1519          1479          99    0.248
    ##  9    10 Fall    4403         966        1213          1129          54    0.256
    ## 10    11 Fall    4008        1001        1086          1049          46    0.262
    ## # … with 66 more rows, and abbreviated variable name ¹​prop_delay
…
    ## `summarise()` has grouped output by 'origin'. You can override using the
    ## `.groups` argument.

``` r
flight6
```

    ## # A tibble: 54 × 8
    ## # Groups:   origin [3]
    ##    origin  hour     n n_dep_delay n_arr_delay n_total_delay n_cancelled prop_d…¹
    ##    <chr>  <dbl> <int>       <int>       <int>         <int>       <int>    <dbl>
    ##  1 LGA        7  7137        1090        1793          1579         141    0.221
    ##  2 LGA        6  8558        1413        2359          2059         223    0.241
    ##  3 JFK        7  7026        1452        1909          1791          68    0.255
    ##  4 EWR        5   895         226         238           234           6    0.261
    ##  5 EWR        6 11133        2808        3127          3066         205    0.275
    ##  6 LGA        8  7167        1422        2196          1993         143    0.278
    ##  7 JFK        5   750         168         218           210           5    0.28 
    ##  8 LGA        9  7760        1687        2342          2175         204    0.280
    ##  9 EWR        7  8658        2421        2411          2445         137    0.282
    ## 10 JFK        6  6260        1209        1998          1818          76    0.290
    ## # … with 44 more rows, and abbreviated variable name ¹​prop_delay
…
